…
This document will discuss tidying data.

### `pivot_longer` function

``` r
# importing the package initially
pulse_df <- 
  haven::read_sas("./data/data_wrangling/public_pulse_data.sas7bdat") %>% 
  janitor::clean_names()

pulse_df
```

    ## # A tibble: 1,087 × 7
    ##       id   age sex    bdi_score_bl bdi_score_01m bdi_score_06m bdi_score_12m
    ##    <dbl> <dbl> <chr>         <dbl>         <dbl>         <dbl>         <dbl>
    ##  1 10003  48.0 male              7             1             2             0
    ##  2 10015  72.5 male              6            NA            NA            NA
    ##  3 10022  58.5 male             14             3             8            NA
    ##  4 10026  72.7 male             20             6            18            16
    ##  5 10035  60.4 male              4             0             1             2
    ##  6 10050  84.7 male              2            10            12             8
    ##  7 10078  31.3 male              4             0            NA            NA
    ##  8 10088  56.9 male              5            NA             0             2
    ##  9 10091  76.0 male              0             3             4             0
    ## 10 10092  74.2 female           10             2            11             6
    ## # ℹ 1,077 more rows
…
pulse_tidy_df
```

    ## # A tibble: 4,348 × 5
    ##       id   age sex   visit   bdi
    ##    <dbl> <dbl> <chr> <fct> <dbl>
    ##  1 10003  48.0 male  00m       7
    ##  2 10003  48.0 male  01m       1
    ##  3 10003  48.0 male  06m       2
    ##  4 10003  48.0 male  12m       0
    ##  5 10015  72.5 male  00m       6
    ##  6 10015  72.5 male  01m      NA
    ##  7 10015  72.5 male  06m      NA
    ##  8 10015  72.5 male  12m      NA
    ##  9 10022  58.5 male  00m      14
    ## 10 10022  58.5 male  01m       3
    ## # ℹ 4,338 more rows

### learning assessment

Combine the gd_weight variables into a long format:

``` r
litters_df <- 
  read_csv("./data/data_wrangling/FAS_litters.csv", na = c("NA", ".", "")) %>% 
  janitor::clean_names()

litters_df
```

    ## # A tibble: 49 × 8
    ##    group litter_number   gd0_weight gd18_weight gd_of_birth pups_born_alive
    ##    <chr> <chr>                <dbl>       <dbl>       <dbl>           <dbl>
    ##  1 Con7  #85                   19.7        34.7          20               3
    ##  2 Con7  #1/2/95/2             27          42            19               8
    ##  3 Con7  #5/5/3/83/3-3         26          41.4          19               6
    ##  4 Con7  #5/4/2/95/2           28.5        44.1          19               5
    ##  5 Con7  #4/2/95/3-3           NA          NA            20               6
    ##  6 Con7  #2/2/95/3-2           NA          NA            20               6
    ##  7 Con7  #1/5/3/83/3-3/2       NA          NA            20               9
    ##  8 Con8  #3/83/3-3             NA          NA            20               9
    ##  9 Con8  #2/95/3               NA          NA            20               8
    ## 10 Con8  #3/5/2/2/95           28.5        NA            20               8
    ## # ℹ 39 more rows
    ## # ℹ 2 more variables: pups_dead_birth <dbl>, pups_survive <dbl>
…
litters_tidy_df
```

    ## # A tibble: 98 × 8
    ##    group litter_number gd_of_birth pups_born_alive pups_dead_birth pups_survive
    ##    <chr> <chr>               <dbl>           <dbl>           <dbl>        <dbl>
    ##  1 Con7  #85                    20               3               4            3
    ##  2 Con7  #85                    20               3               4            3
    ##  3 Con7  #1/2/95/2              19               8               0            7
    ##  4 Con7  #1/2/95/2              19               8               0            7
    ##  5 Con7  #5/5/3/83/3-3          19               6               0            5
    ##  6 Con7  #5/5/3/83/3-3          19               6               0            5
    ##  7 Con7  #5/4/2/95/2            19               5               1            4
    ##  8 Con7  #5/4/2/95/2            19               5               1            4
    ##  9 Con7  #4/2/95/3-3            20               6               0            6
    ## 10 Con7  #4/2/95/3-3            20               6               0            6
    ## # ℹ 88 more rows
    ## # ℹ 2 more variables: gd <dbl>, weight <dbl>
…
pups_df
```

    ## # A tibble: 313 × 6
    ##    litter_number sex   pd_ears pd_eyes pd_pivot pd_walk
    ##    <chr>         <fct>   <dbl>   <dbl>    <dbl>   <dbl>
    ##  1 #85           male        4      13        7      11
    ##  2 #85           male        4      13        7      12
    ##  3 #1/2/95/2     male        5      13        7       9
    ##  4 #1/2/95/2     male        5      13        8      10
    ##  5 #5/5/3/83/3-3 male        5      13        8      10
    ##  6 #5/5/3/83/3-3 male        5      14        6       9
    ##  7 #5/4/2/95/2   male       NA      14        5       9
    ##  8 #4/2/95/3-3   male        4      13        6       8
    ##  9 #4/2/95/3-3   male        4      13        7       9
    ## 10 #2/2/95/3-2   male        4      NA        8      10
    ## # ℹ 303 more rows
``` r
litters_df <-
  read_csv("./data/data_wrangling/FAS_litters.csv", na = c("NA", ".", "")) %>% 
  janitor::clean_names() %>% 
  separate(group, into = c("dose", "day_of_tx"), sep = 3) %>% 
  relocate(litter_number) %>% 
  mutate(
    wt_gain = gd18_weight - gd0_weight,
    dose = str_to_lower(dose)
  )

litters_df
```

    ## # A tibble: 49 × 10
    ##    litter_number   dose  day_of_tx gd0_weight gd18_weight gd_of_birth
    ##    <chr>           <chr> <chr>          <dbl>       <dbl>       <dbl>
    ##  1 #85             con   7               19.7        34.7          20
    ##  2 #1/2/95/2       con   7               27          42            19
    ##  3 #5/5/3/83/3-3   con   7               26          41.4          19
    ##  4 #5/4/2/95/2     con   7               28.5        44.1          19
    ##  5 #4/2/95/3-3     con   7               NA          NA            20
    ##  6 #2/2/95/3-2     con   7               NA          NA            20
    ##  7 #1/5/3/83/3-3/2 con   7               NA          NA            20
    ##  8 #3/83/3-3       con   8               NA          NA            20
    ##  9 #2/95/3         con   8               NA          NA            20
    ## 10 #3/5/2/2/95     con   8               28.5        NA            20
    ## # ℹ 39 more rows
    ## # ℹ 4 more variables: pups_born_alive <dbl>, pups_dead_birth <dbl>,
    ## #   pups_survive <dbl>, wt_gain <dbl>

#### left join

``` r
fas_df <- left_join(pups_df, litters_df, by = "litter_number")

fas_df
```

    ## # A tibble: 313 × 15
    ##    litter_number sex   pd_ears pd_eyes pd_pivot pd_walk dose  day_of_tx
    ##    <chr>         <fct>   <dbl>   <dbl>    <dbl>   <dbl> <chr> <chr>    
    ##  1 #85           male        4      13        7      11 con   7        
    ##  2 #85           male        4      13        7      12 con   7        
    ##  3 #1/2/95/2     male        5      13        7       9 con   7        
    ##  4 #1/2/95/2     male        5      13        8      10 con   7        
    ##  5 #5/5/3/83/3-3 male        5      13        8      10 con   7        
    ##  6 #5/5/3/83/3-3 male        5      14        6       9 con   7        
    ##  7 #5/4/2/95/2   male       NA      14        5       9 con   7        
    ##  8 #4/2/95/3-3   male        4      13        6       8 con   7        
    ##  9 #4/2/95/3-3   male        4      13        7       9 con   7        
    ## 10 #2/2/95/3-2   male        4      NA        8      10 con   7        
    ## # ℹ 303 more rows
    ## # ℹ 7 more variables: gd0_weight <dbl>, gd18_weight <dbl>, gd_of_birth <dbl>,
    ## #   pups_born_alive <dbl>, pups_dead_birth <dbl>, pups_survive <dbl>,
    ## #   wt_gain <dbl>

#### right join

``` r
fas_df <- right_join(pups_df, litters_df, by = "litter_number")

fas_df
```

    ## # A tibble: 306 × 15
    ##    litter_number sex   pd_ears pd_eyes pd_pivot pd_walk dose  day_of_tx
    ##    <chr>         <fct>   <dbl>   <dbl>    <dbl>   <dbl> <chr> <chr>    
    ##  1 #85           male        4      13        7      11 con   7        
    ##  2 #85           male        4      13        7      12 con   7        
    ##  3 #1/2/95/2     male        5      13        7       9 con   7        
    ##  4 #1/2/95/2     male        5      13        8      10 con   7        
    ##  5 #5/5/3/83/3-3 male        5      13        8      10 con   7        
    ##  6 #5/5/3/83/3-3 male        5      14        6       9 con   7        
    ##  7 #5/4/2/95/2   male       NA      14        5       9 con   7        
    ##  8 #4/2/95/3-3   male        4      13        6       8 con   7        
    ##  9 #4/2/95/3-3   male        4      13        7       9 con   7        
    ## 10 #2/2/95/3-2   male        4      NA        8      10 con   7        
    ## # ℹ 296 more rows
    ## # ℹ 7 more variables: gd0_weight <dbl>, gd18_weight <dbl>, gd_of_birth <dbl>,
    ## #   pups_born_alive <dbl>, pups_dead_birth <dbl>, pups_survive <dbl>,
    ## #   wt_gain <dbl>

#### inner join

``` r
fas_df <- inner_join(pups_df, litters_df, by = "litter_number")

fas_df
```

    ## # A tibble: 304 × 15
    ##    litter_number sex   pd_ears pd_eyes pd_pivot pd_walk dose  day_of_tx
    ##    <chr>         <fct>   <dbl>   <dbl>    <dbl>   <dbl> <chr> <chr>    
    ##  1 #85           male        4      13        7      11 con   7        
    ##  2 #85           male        4      13        7      12 con   7        
    ##  3 #1/2/95/2     male        5      13        7       9 con   7        
    ##  4 #1/2/95/2     male        5      13        8      10 con   7        
    ##  5 #5/5/3/83/3-3 male        5      13        8      10 con   7        
    ##  6 #5/5/3/83/3-3 male        5      14        6       9 con   7        
    ##  7 #5/4/2/95/2   male       NA      14        5       9 con   7        
    ##  8 #4/2/95/3-3   male        4      13        6       8 con   7        
    ##  9 #4/2/95/3-3   male        4      13        7       9 con   7        
    ## 10 #2/2/95/3-2   male        4      NA        8      10 con   7        
    ## # ℹ 294 more rows
    ## # ℹ 7 more variables: gd0_weight <dbl>, gd18_weight <dbl>, gd_of_birth <dbl>,
    ## #   pups_born_alive <dbl>, pups_dead_birth <dbl>, pups_survive <dbl>,
    ## #   wt_gain <dbl>

#### full join

``` r
fas_df <- full_join(pups_df, litters_df, by = "litter_number")

fas_df
```

    ## # A tibble: 315 × 15
    ##    litter_number sex   pd_ears pd_eyes pd_pivot pd_walk dose  day_of_tx
    ##    <chr>         <fct>   <dbl>   <dbl>    <dbl>   <dbl> <chr> <chr>    
    ##  1 #85           male        4      13        7      11 con   7        
    ##  2 #85           male        4      13        7      12 con   7        
    ##  3 #1/2/95/2     male        5      13        7       9 con   7        
    ##  4 #1/2/95/2     male        5      13        8      10 con   7        
    ##  5 #5/5/3/83/3-3 male        5      13        8      10 con   7        
    ##  6 #5/5/3/83/3-3 male        5      14        6       9 con   7        
    ##  7 #5/4/2/95/2   male       NA      14        5       9 con   7        
    ##  8 #4/2/95/3-3   male        4      13        6       8 con   7        
    ##  9 #4/2/95/3-3   male        4      13        7       9 con   7        
    ## 10 #2/2/95/3-2   male        4      NA        8      10 con   7        
    ## # ℹ 305 more rows
    ## # ℹ 7 more variables: gd0_weight <dbl>, gd18_weight <dbl>, gd_of_birth <dbl>,
    ## #   pups_born_alive <dbl>, pups_dead_birth <dbl>, pups_survive <dbl>,
    ## #   wt_gain <dbl>
