…
``` r
cv_df <- crossv_mc(lidar_df, 100) 
```

When using non-`lm` models (ie when using `gam`), `cross_cv` products
need to be coerced into datasets we can work with. This loses
`cross_cv`’s smart memory storage:

``` r
cv_df %>% pull(train) %>% nth(1) %>% as_tibble()
```

    ## # A tibble: 176 × 3
    ##    range logratio    id
    ##    <dbl>    <dbl> <int>
    ##  1   390  -0.0504     1
    ##  2   394  -0.0510     4
    ##  3   396  -0.0599     5
    ##  4   399  -0.0596     7
    ##  5   400  -0.0399     8
    ##  6   402  -0.0294     9
    ##  7   403  -0.0395    10
    ##  8   405  -0.0476    11
    ##  9   406  -0.0604    12
    ## 10   408  -0.0312    13
    ## # ℹ 166 more rows

``` r
cv_df %>% pull(test) %>% nth(1) %>% as_tibble()
```

    ## # A tibble: 45 × 3
    ##    range logratio    id
    ##    <dbl>    <dbl> <int>
    ##  1   391  -0.0601     2
    ##  2   393  -0.0419     3
    ##  3   397  -0.0284     6
    ##  4   412  -0.0500    16
    ##  5   421  -0.0316    22
    ##  6   424  -0.0884    24
    ##  7   426  -0.0702    25
    ##  8   427  -0.0288    26
    ##  9   436  -0.0573    32
    ## 10   445  -0.0647    38
    ## # ℹ 35 more rows
…
